{
  "orders" : [
    { "clientOrderNumber" : “ec_201710301_fs1”,
      "programID" :“Test_Peach”,
      "participantID" : “127143”,
      "shipToFirstName" : “Juan”,
      "shipToMiddleInitial" : “”,
      "shipToLastName" : “Beach Blvd”,
      "shipToAddressLine1" : “13010 Morris Rd”,
      "shipToAddressLine2" : “”,
      "shipToAddressLine3" : “”,
      "shipToCity" : “Anaheim”,
      "shipToState" : “CA”,
      "shipToPostalCode" : “92804”,
      "shipToCountry" : “US”,
      "shipToPhone" : “6783314146”,
      "shipToEmail": “xavierbaez@gmail.com”,
      "shipToCompanyName” : ””,
      "orderLineItem" : [{
        "clientLineItemNumber" : “1”,
        "offerCode" : “BIF-AERO”,
        "quantity": “2”,
        "shippingMethod" : “”,
        "packageID" : “1010”,
        "activationCode" : “”,
        "denomination" : “25”,
        "logoID" : “”,
        "companyName" : “”,
        "imageID" : “”,
        "embossedLine" : “”,
        "carrierMessage" : “”,
        "carrierMessageClosing" : “”,
        "carrierMessageSignature" : “”,
        "additionalProperties" : [
          "status" : “”,
          "shipment" : [
          {"shipper" : “”,
          "shippingMethod" : “”,
          "trackingNumber" : “”,
          "shippingDate" : “”
          } ],
          "cardDetails" :[
          { "card" : [
          {"cardID" : “”,
          "serialNumber" : “”,
          "pan" : “”,
          "van16" : “”,
          "track1" : “”,
          "track2" : “”,
          "fulfillerCardNumber" : “”
          }
          ],
          "activationEvents" : [
          {"serialNumber" : “”,
          "orderOriginatingSystem" “”,
          "date" : “”,
          "datee" : “”,
          "activationEventType" : “”,
          "pan" : “”,
          "cardID" : “”
          }
          ]
          ,
          "serialNumber" “”,
          "van16" : “”
          }

          ]

        },
          {
            "clientLineItemNumber" : “2”,
            "offerCode" : “BIF-AMEX”,
            "quantity": “3”,
            "shippingMethod" : “”,
            "packageID" : “1010”,
            "activationCode" : “”,
            "denomination" : “50”,
            "logoID" : “”,
            "companyName" : “”,
            "imageID" : “”,
            "embossedLine" : “”,
            "carrierMessage" : “”,
            "carrierMessageClosing" : “”,
            "carrierMessageSignature" : “”,
            "additionalProperties" : [
              "status" : “”,
              "shipment" : [
              {"shipper" : “”,
              "shippingMethod" : “”,
              "trackingNumber" : “”,
              "shippingDate" : “”
              } ],
              "cardDetails" :[
              { "card" : [
              {"cardID" : “”,
              "serialNumber" : “”,
              "pan" : “”,
              "van16" : “”,
              "track1" : “”,
              "track2" : “”,
              "fulfillerCardNumber" : “”
              }
              ],
              "activationEvents" : [
              {"serialNumber" : “”,
              "orderOriginatingSystem" “”,
              "date" : “”,
              "datee" : “”,
              "activationEventType" : “”,
              "pan" : “”,
              "cardID" : “”
              }
              ]
              ,
              "serialNumber" “”,
              "van16" : “”
              }

              ]

            }]
          ],
            "additionalProperties" : [{
              "orderStatus" : ""
            }
            ]
          }
        ]

      },
        "clientOrderBatchNumber" : "",
        "identification" : [
        {"clientId" : "ecomm",
        "authorization" : "84be1c365356e8ad04e8ae1bf9c3cd92fg49d0a7",
        "createdTime" : "2017-11-01 15:23:18.000090"
        }
        ]
      }

      }

