{
  "fees": [
    { "type": "purchasefee","charge": 3.99,"currency": "US", "description": "A Purchase Fee of $3.95 per Card applies","addl_messages" : "One time fee"}
  ],
  "product": [
    { "id": 1 }
  ]
}
